{
  "type": "service_account",
  "project_id": "datastack-bank",
  "private_key_id": "48e6790317c29f3023d8e9152673241a95924e33",
  "private_key": "-----BEGIN PRIVATE KEY-----\nMIIEvgIBADANBgkqhkiG9w0BAQEFAASCBKgwggSkAgEAAoIBAQDKC2swLo6T+r9B\n8+B/nrpa7oxT2zTl/dtO/H4arRNr7JjTWYxlyps/MegbFrmawc7AvX7J829jdTu5\nw2uRh49u4RwSDo6VrwjSgsvpfM1m/R3T7XkgI5HJfYaMC2GDVBvE2YBDlzLlybfq\n6LT0pqU4Ksz4DtdgnWJA8rAa7D/AgCBuNoDZoYyayi8nWMYXAF3WTkbn3R19o+HW\nqHyJOvJtcnbU3mfq5mYRKS4ZBWmraHnihnD2ox8z7kpzXGJtVw4jNlmyqXg0Y0gU\nKRHiife0hoLkzMokEwngpF9EjH20YRv2WojAdds+rGum2X166+v4Isy2tnwRo0cR\nCMV+fd2hAgMBAAECggEADnN9oa8azJPJPT7jxk0EmD9qsw7BPFgJaR9fJ6pMctIz\n5h4IEDnLG9yGdPWNpfeJwbhsCqbKR0tZz8Id/gU7qZsZRmNbKHKiB2iKjDM8f8rH\n6OIZ4UYaBdbgGkEwItQPvmcuKOd2IQBqEre9RahrtdY93do15nerUOjq1qoiLzL6\nVhMxepMRS58KuA66VVyceSwCMaJYFOQd6f2T72Kn/31540yfL+A0NZPaO5Mej8Rq\nVlgrtED74IEDftu0DiG2Iwn41cHfsNm24NlmxFcjvFmt3jJxa4yf97qmiKw7q2m9\npr9+B5y4pq4/4W2qtSXW7sfiwP5gi9T+1L0N1p1rKQKBgQDkm+VGOLhtiAs9bc8s\ndG4iCJd3aBFfU6ha3fNfO8t/YRo96+5Wek9/vb2UhZ4lp4fQvt+8XTShZPpY7quj\nMATicBpK+JzCzAqznnCitrCctuylCEBOICtpEubMmz++fw4GB7JgAO0YcwmNAfuK\nNgWXlxm9x8Q8MtWqSQHDPEUUBQKBgQDiQLdvV9XgldOmwzT7lEP7UStc26dG0i5G\nDsWOoI1GT9kdzoEfM9aMAeEVY2EIRjvp83tW/weJxPbyeyZHlzouR7TfXU4HbLFl\nYTKnDgkHWdH/SqjZg4GjBgNauDjSV6BqJYkRqxhaMGA885brD1lJSTTiNi6mUEKV\n1SsMpz4R7QKBgF/BeQC343BlqqeZZkztm+//f0pRue0fAobFLxq11iBN0Qsc1uE8\nLC6KkG00prCJAteKC/c/ZzsvK7myhww8od8jK7A5gJgLlXP1KqLNOR77dBYQZbcT\nvHsvoqMTaFjnqT0XXjzeRnGWRerdaLpUtHTxoqOemHDKrjq8h9N6XEjtAoGBAJwM\n6vg+6uN2M38n0Jlcz+69M11emud7/DKR6azQC+DdHfEzB1gQFwCGI0rvOnPMjXJ1\nXzLHv9lEItdoHSTvp09YYeZVooX4b/puqdMTGSMazn54bjFoRLe+Y/3kZjyd96R+\nsyWejrNV/mrLz+HcukaT2YfUuyQ241YYqxKVH3iZAoGBAJ3WrOKyJ39t+vi/BCVN\nSSrsnkBV7+IaRJCzA5pFxFKrUp8kru5MoUHV/7yVXNCiymjrIKWrvJjFxtRtszcw\nWgaQXGzP0Cu76IrbLJzPh/0ahE805k50EbgX94UVeHxMagNfsoENOx5MUc+npITK\nSGTmQNCdOSbsVvFDivBFH/mg\n-----END PRIVATE KEY-----\n",
  "client_email": "cloud-sql-proxy-client@datastack-bank.iam.gserviceaccount.com",
  "client_id": "110825888256209692571",
  "auth_uri": "https://accounts.google.com/o/oauth2/auth",
  "token_uri": "https://oauth2.googleapis.com/token",
  "auth_provider_x509_cert_url": "https://www.googleapis.com/oauth2/v1/certs",
  "client_x509_cert_url": "https://www.googleapis.com/robot/v1/metadata/x509/cloud-sql-proxy-client%40datastack-bank.iam.gserviceaccount.com"
}
